<?xml version="1.0" encoding="utf-8"?><!-- Uploaded to: SVG Repo, www.svgrepo.com, Generator: SVG Repo Mixer Tools -->
<svg viewBox="0 0 256 256" id="Flat" xmlns="http://www.w3.org/2000/svg">
  <path d="M236.74414,187.96585l-87.96875-152a24.012,24.012,0,0,0-41.54687,0v.00782L19.25977,187.96585a23.9982,23.9982,0,0,0,20.76562,36.02344H215.97852a23.9982,23.9982,0,0,0,20.76562-36.02344Zm-116.75-83.96875a8,8,0,1,1,16,0v40a8,8,0,1,1-16,0ZM128,192a12,12,0,1,1,12-12A12.00059,12.00059,0,0,1,128,192Z"/>
</svg>